<?xml version="1.0" encoding="utf-8"?>
<!-- Generator: Adobe Illustrator 21.0.2, SVG Export Plug-In . SVG Version: 6.00 Build 0)  -->
<svg version="1.1" id="Livello_1" xmlns="http://www.w3.org/2000/svg" xmlns:xlink="http://www.w3.org/1999/xlink" x="0px" y="0px"
	 viewBox="0 0 357.5 90.8" style="enable-background:new 0 0 357.5 90.8;" xml:space="preserve">
<style type="text/css">
	.st0{fill:#020203;}
	.st1{display:none;fill:#FFFFFF;}
	.st2{fill:url(#SVGID_1_);}
	.st3{fill:#E28F2A;}
	.st4{fill:#F2E500;}
</style>
<g>
	<path class="st0" d="M155.1,31.9c1.7,1,3.1,2.5,4,4.4c1,1.9,1.4,4.1,1.4,6.6c0,2.5-0.5,4.7-1.4,6.5c-0.9,1.9-2.2,3.3-3.9,4.4
		c-1.7,1-3.7,1.5-5.9,1.5c-1.5,0-2.9-0.3-4.2-0.9s-2.3-1.4-3.2-2.6v12h-8.1V30.6h8.1v3.2c1.8-2.3,4.2-3.4,7.2-3.4
		C151.4,30.3,153.4,30.9,155.1,31.9z M150.9,47.2c1-1.1,1.5-2.6,1.5-4.4s-0.5-3.3-1.5-4.4c-1-1.1-2.3-1.7-3.8-1.7
		c-1.5,0-2.8,0.6-3.8,1.7c-1,1.1-1.5,2.6-1.5,4.4s0.5,3.3,1.5,4.4c1,1.1,2.2,1.7,3.8,1.7C148.7,48.9,149.9,48.3,150.9,47.2z"/>
	<path class="st0" d="M184.3,31.9c2,1,3.6,2.5,4.7,4.4c1.1,1.9,1.7,4.1,1.7,6.6c0,2.5-0.6,4.7-1.7,6.6s-2.7,3.4-4.7,4.4
		c-2,1-4.4,1.6-7,1.6c-2.7,0-5-0.5-7-1.6c-2-1-3.6-2.5-4.7-4.4c-1.1-1.9-1.7-4.1-1.7-6.6c0-2.5,0.6-4.7,1.7-6.6
		c1.1-1.9,2.7-3.4,4.7-4.4c2-1,4.4-1.6,7-1.6C179.9,30.3,182.2,30.9,184.3,31.9z M173.4,38.5c-1,1.1-1.5,2.6-1.5,4.4
		c0,1.8,0.5,3.3,1.5,4.4c1,1.1,2.2,1.7,3.8,1.7c1.6,0,2.9-0.6,3.9-1.7c1-1.1,1.5-2.6,1.5-4.4c0-1.8-0.5-3.3-1.5-4.4
		c-1-1.1-2.3-1.7-3.8-1.7C175.6,36.9,174.4,37.4,173.4,38.5z"/>
	<path class="st0" d="M214.3,31.9c2,1,3.6,2.5,4.7,4.4c1.1,1.9,1.7,4.1,1.7,6.6c0,2.5-0.6,4.7-1.7,6.6s-2.7,3.4-4.7,4.4
		c-2,1-4.4,1.6-7,1.6c-2.7,0-5-0.5-7-1.6c-2-1-3.6-2.5-4.7-4.4s-1.7-4.1-1.7-6.6c0-2.5,0.6-4.7,1.7-6.6c1.1-1.9,2.7-3.4,4.7-4.4
		s4.4-1.6,7-1.6C210,30.3,212.3,30.9,214.3,31.9z M203.5,38.5c-1,1.1-1.5,2.6-1.5,4.4c0,1.8,0.5,3.3,1.5,4.4c1,1.1,2.2,1.7,3.8,1.7
		c1.6,0,2.9-0.6,3.9-1.7c1-1.1,1.5-2.6,1.5-4.4c0-1.8-0.5-3.3-1.5-4.4c-1-1.1-2.3-1.7-3.8-1.7C205.7,36.9,204.5,37.4,203.5,38.5z"/>
	<path class="st0" d="M226.2,21.5h8.1v33.7h-8.1V21.5z"/>
	<path class="st0" d="M238.5,30.6h8.2l4.9,16.6l4.8-16.6h7.7l4.9,16.6l4.9-16.6h7.9l-9,24.5h-8L260.2,40l-4.7,15.2h-8L238.5,30.6z"
		/>
	<path class="st0" d="M292.7,20.5c0.8,0.8,1.2,1.8,1.2,3.1c0,1.2-0.4,2.3-1.2,3.1c-0.8,0.8-1.8,1.2-3.1,1.2s-2.3-0.4-3.1-1.2
		c-0.8-0.8-1.2-1.8-1.2-3.1c0-1.3,0.4-2.3,1.2-3.1c0.8-0.8,1.8-1.2,3.1-1.2S291.9,19.7,292.7,20.5z M285.7,30.6h8v24.5h-8V30.6z"/>
	<path class="st0" d="M323.7,32.8c1.6,1.7,2.4,4,2.4,6.9v15.5h-8V42c0-1.4-0.4-2.5-1.1-3.3c-0.8-0.8-1.8-1.2-3-1.2
		c-1.3,0-2.4,0.5-3.3,1.3c-0.9,0.8-1.4,2-1.5,3.4v13H301V30.6h8.1v4c0.9-1.4,2-2.5,3.4-3.2c1.4-0.7,3-1.1,4.7-1.1
		C319.9,30.3,322.1,31.1,323.7,32.8z"/>
	<path class="st0" d="M352.7,33.9c2.1,2.4,3.2,5.6,3.2,9.7c0,0.6,0,1.1,0,1.5h-17.1c0.4,1.4,1.1,2.5,2,3.2c1,0.7,2.1,1.1,3.5,1.1
		c1.1,0,2.1-0.2,3.1-0.6s1.9-1,2.7-1.9l4.2,4.2c-1.3,1.4-2.8,2.5-4.6,3.2c-1.8,0.7-3.8,1.1-6.1,1.1c-2.6,0-4.9-0.5-6.9-1.5
		c-2-1-3.5-2.5-4.5-4.4c-1-1.9-1.6-4.1-1.6-6.5c0-2.5,0.5-4.7,1.6-6.6s2.6-3.4,4.5-4.4c1.9-1,4.2-1.6,6.7-1.6
		C347.5,30.3,350.6,31.5,352.7,33.9z M348.1,40.7c0-1.4-0.4-2.6-1.2-3.4c-0.8-0.9-1.9-1.3-3.3-1.3c-1.3,0-2.3,0.4-3.2,1.3
		c-0.9,0.8-1.4,2-1.7,3.4H348.1z"/>
</g>
<g>
	<circle class="st1" cx="46.1" cy="45.9" r="19.1"/>
	<radialGradient id="SVGID_1_" cx="84.5119" cy="45.5512" r="29.8246" gradientUnits="userSpaceOnUse">
		<stop  offset="0" style="stop-color:#D4B000"/>
		<stop  offset="1" style="stop-color:#F2E500"/>
	</radialGradient>
	<path class="st2" d="M46.1,1C21.3,1,1.2,21.1,1.2,45.9c0,20.4,13.7,37.7,32.4,43.1c3.7,0.8,11.2,1.2,11.2-6.9h0V64.9
		C34.9,64.3,27,56,27,45.9V26.4h38.1v19.5c0,10.1-7.8,18.3-17.8,19v17.1h0c0,7.4,7.4,7.7,10.7,7.1C77.1,83.9,91,66.5,91,45.9
		C91,21.1,70.9,1,46.1,1z"/>
	<path class="st3" d="M107.6,51.6H95.7c-3.1,0-5.6-2.5-5.6-5.6v0c0-3.1,2.5-5.6,5.6-5.6h11.9c3.1,0,5.6,2.5,5.6,5.6v0
		C113.2,49,110.7,51.6,107.6,51.6z"/>
	<circle class="st4" cx="87.4" cy="45.9" r="16.1"/>
</g>
</svg>
